Viz con ggplot2
…
Ejercicio - Diamonds

diamonds

## # A tibble: 53,940 x 10
##    carat cut       color clarity depth table price     x     y     z
##    <dbl> <ord>     <ord> <ord>   <dbl> <dbl> <int> <dbl> <dbl> <dbl>
##  1 0.230 Ideal     E     SI2      61.5  55.0   326  3.95  3.98  2.43
##  2 0.210 Premium   E     SI1      59.8  61.0   326  3.89  3.84  2.31
##  3 0.230 Good      E     VS1      56.9  65.0   327  4.05  4.07  2.31
##  4 0.290 Premium   I     VS2      62.4  58.0   334  4.20  4.23  2.63
##  5 0.310 Good      J     SI2      63.3  58.0   335  4.34  4.35  2.75
##  6 0.240 Very Good J     VVS2     62.8  57.0   336  3.94  3.96  2.48
##  7 0.240 Very Good I     VVS1     62.3  57.0   336  3.95  3.98  2.47
##  8 0.260 Very Good H     SI1      61.9  55.0   337  4.07  4.11  2.53
##  9 0.220 Fair      E     VS2      65.1  61.0   337  3.87  3.78  2.49
## 10 0.230 Very Good H     VS1      59.4  61.0   338  4.00  4.05  2.39
## # ... with 53,930 more rows
…
Imposibles Registro de valores que no son posibles (Edades negativas)

Errores Registro incorrecto de valores. (edades de 99 anyone ?)

Las visualizaciones como los histogramas y los boxplots nos ayudan a entender estas caractersticas, sin embargo reitero que se requiere tambin un anlisis estadstico de los valores.

De las estadsticas que describen a una vriable probablemente la media es la medida ms comn y usada para describir los valores, y usualmente para hacer comparaciones de medias se usa bastante la prueba \(t\). La prueba \(t\) depende del supuesto que la variable es normal, aunque este supuesto no es tan riguroso y hay maneras de datle la vuelta; esto es para explicar el hecho que tambin hay que hacer pruebas de normalidad (lase qq-plots, por ejemplo).

Ejemplos - datos de Pima

library(gridExtra)
data(Pima.tr2, package="MASS")
tbl_df(Pima.tr2)

## # A tibble: 300 x 8
##    npreg   glu    bp  skin   bmi   ped   age type 
##  * <int> <int> <int> <int> <dbl> <dbl> <int> <fct>
##  1     5    86    68    28  30.2 0.364    24 No   
##  2     7   195    70    33  25.1 0.163    55 Yes  
##  3     5    77    82    41  35.8 0.156    35 No   
##  4     0   165    76    43  47.9 0.259    26 No   
##  5     0   107    60    25  26.4 0.133    23 No   
##  6     5    97    76    27  35.6 0.378    52 Yes  
##  7     3    83    58    31  34.3 0.336    25 No   
##  8     1   193    50    16  25.9 0.655    24 No   
##  9     3   142    80    15  32.4 0.200    63 No   
## 10     2   128    78    37  43.3 1.22     31 Yes  
## # ... with 290 more rows
…
Ejercicio - SKI

data(SpeedSki, package = "GDAdata")
tbl_df(SpeedSki)

## # A tibble: 91 x 10
##     Rank   Bib FIS.Code Name      Year Nation Speed Sex   Event no.of.runs
##    <int> <int>    <int> <fct>    <int> <fct>  <dbl> <fct> <fct>      <int>
##  1     1    61     7039 ORIGONE~  1979 ITA      212 Male  Spee~          4
##  2     2    59     7078 ORIGONE~  1987 ITA      210 Male  Spee~          4
##  3     3    66   190130 MONTES ~  1985 FRA      210 Male  Spee~          4
##  4     4    57     7178 SCHROTT~  1979 AUT      210 Male  Spee~          4
##  5     5    69   510089 MAY Phi~  1970 SUI      209 Male  Spee~          4
##  6     6    75     7204 BILLY L~  1993 FRA      208 Male  Spee~          4
##  7     7    67     7053 PERSSON~  1975 SWE      208 Male  Spee~          4
##  8     8    58     7170 BILLY S~  1991 FRA      208 Male  Spee~          4
##  9     9    62     7230 CERMAK ~  1980 CZE      207 Male  Spee~          4
## 10    10    56     7055 JANSSON~  1982 SWE      207 Male  Spee~          4
## # ... with 81 more rows
…
